{
    "Categories": "Qt;KDE;",
    "KPlugin": {
        "Description": "Select which virtual keyboard to use",
        "Description[ca@valencia]": "Seleccioneu el teclat virtual a usar",
        "Description[ca]": "Seleccioneu el teclat virtual a usar",
        "Description[es]": "Seleccionar el teclado virtual que se debe usar",
        "Description[fr]": "Sélectionner quel clavier virtuel à utiliser",
        "Description[nl]": "Het te gebruiken virtuele toetsenbord selecteren",
        "Description[sl]": "Izberite katere navidezne tipkovnice uporabljati",
        "Description[sv]": "Välj vilket virtuellt tangentbord som ska användas",
        "Description[ta]": "பயன்படுத்தவேண்டிய மெய்நிகர் விசைப்பலகையை தேர்ந்தெடுங்கள்",
        "Description[tr]": "Hangi sanal klavyenin kullanılacağını seçin",
        "Description[uk]": "Вибір віртуальної клавіатури",
        "Description[vi]": "Chọn bàn phím ảo để dùng",
        "Description[x-test]": "xxSelect which virtual keyboard to usexx",
        "Icon": "input-keyboard-virtual",
        "Name": "Virtual Keyboard",
        "Name[ca@valencia]": "Teclat virtual",
        "Name[ca]": "Teclat virtual",
        "Name[es]": "Teclado virtual",
        "Name[fr]": "Clavier virtuel",
        "Name[nl]": "Virtueel toetsenbord",
        "Name[sl]": "Navidezna tipkovnica",
        "Name[sv]": "Virtuellt tangentbord",
        "Name[ta]": "மெய்நிகர் விசைப்பலகை",
        "Name[tr]": "Sanal Klavye",
        "Name[uk]": "Віртуальна клавіатура",
        "Name[vi]": "Bàn phím ảo",
        "Name[x-test]": "xxVirtual Keyboardxx",
        "ServiceTypes": [
            "KCModule"
        ]
    },
    "X-DocPath": "kcontrol/kwinvirtualkeyboard/index.html",
    "X-KDE-Keywords": "software keyboard,virtual keyboard,touch keyboard,on screen keyboard,input methods",
    "X-KDE-Keywords[ar]": "لوحة مفاتيح,افتراضية,لوحة مفاتيح تطبيقات,لمس,على الشاشة,دخل,إدخال",
    "X-KDE-Keywords[az]": "software keyboard,virtual keyboard,touch keyboard,on screen keyboard,input methods,proqram klaviaturası,virtual klaviatura,sensor klaviatura,ekran klaviaturası,daxiletmə üsulları",
    "X-KDE-Keywords[ca@valencia]": "teclat per programari,teclat virtual,teclat tàctil,teclat en pantalla,mètodes d'entrada",
    "X-KDE-Keywords[ca]": "teclat per programari,teclat virtual,teclat tàctil,teclat en pantalla,mètodes d'entrada",
    "X-KDE-Keywords[en_GB]": "software keyboard,virtual keyboard,touch keyboard,on screen keyboard,input methods",
    "X-KDE-Keywords[es]": "teclado de software,teclado virtual,teclado táctil,teclado en la pantalla,métodos de entrada",
    "X-KDE-Keywords[fi]": "ohjelmallinen näppäimistö,virtuaalinäppäimistö,näyttönäppäimistö,kosketusnäppäimistö,syötetapa,syötetavat",
    "X-KDE-Keywords[fr]": "clavier logiciel, clavier virtuel, pavé tactile, clavier à l'écran, méthodes de d'entrée",
    "X-KDE-Keywords[hu]": "szoftveres billentyűzet,virtuális billentyűzet,érintőbillentyűzet,képernyőbillentyűzet,beviteli módok",
    "X-KDE-Keywords[ia]": "claviero software, claviero virtual, claviero a toccar, claviero sur schermo, methodos de entrata",
    "X-KDE-Keywords[id]": "keyboard perangkat lunak,keyboard virtual,keyboard sentuh,keyboard pada layar,metode input",
    "X-KDE-Keywords[it]": "tastiera software,tastiera virtuale,tastiera tattile,tastiera su schermo,metodi di inserimento",
    "X-KDE-Keywords[ko]": "software keyboard,virtual keyboard,touch keyboard,on screen keyboard,input methods,소프트웨어 키보드,가상 키보드,터치 키보드,화면상 키보드,입력기",
    "X-KDE-Keywords[nl]": "softwaretoetsenbord,virtueel toetsenbord,aanraaktoetsenbord,toetsenbord op scherm,invoermethoden",
    "X-KDE-Keywords[nn]": "programtastatur,virtuelt tastatur,fingertastatur,skjermtastatur,inndatametode",
    "X-KDE-Keywords[pl]": "klawiatura programowa,klawiatura wirtualna,klawiatura dotykowa,klawiatura ekranowa, sposoby wprowadzania",
    "X-KDE-Keywords[pt]": "teclado por 'software',teclado virtual,teclado táctil,teclado no ecrã,métodos de entrada",
    "X-KDE-Keywords[pt_BR]": "teclado de software,teclado virtual,teclado de toque,touch,touchscreen,teclado na tela,métodos de entrada",
    "X-KDE-Keywords[ru]": "software keyboard,virtual keyboard,touch keyboard,on screen keyboard,input methods,программная клавиатура,виртуальная клавиатура,сенсорная клавиатура,экранная клавиатура,способы ввода",
    "X-KDE-Keywords[sk]": "softvérová klávesnica,virtuálna klávesnica,dotyková klávesnica,klávesnica na obrazovke,metódy vstupu",
    "X-KDE-Keywords[sl]": "programska tipkovnica,navidezna tipkovnica,tipkovnica na dotik,tipkovnica na zaslonu,metode vnosa",
    "X-KDE-Keywords[sv]": "programvarutangentbord,virtuellt tangentbord,pektangentbord,tangentbord på skärmen,inmatningsmetoder",
    "X-KDE-Keywords[ta]": "software keyboard,virtual keyboard,touch keyboard,on screen keyboard,input methods, மெய்நிகர் விசைப்பலகை, மென்பொருள் விசைப்பலகை, தொடு விசைப்பலகை, உள்ளிடு, உள்ளீட்டு, தட்டச்சு, தட்டு",
    "X-KDE-Keywords[tr]": "yazılım klavyesi,sanal klavye,dokunmatik klavye,ekran üzeri klavye,giriş yöntemleri",
    "X-KDE-Keywords[uk]": "software keyboard,virtual keyboard,touch keyboard,on screen keyboard,input methods,програмна клавіатура,віртуальна клавіатура,сенсорна клавіатура,екранна клавіатура,способи введення,методи введення",
    "X-KDE-Keywords[vi]": "software keyboard,virtual keyboard,touch keyboard,on screen keyboard,input methods,bàn phím phần mềm,bàn phím ảo,bàn phím cảm ứng,bàn phím trên màn hình,phương thức nhập",
    "X-KDE-Keywords[x-test]": "xxsoftware keyboardxx,xxvirtual keyboardxx,xxtouch keyboardxx,xxon screen keyboardxx,xxinput methodsxx",
    "X-KDE-Keywords[zh_CN]": "software keyboard,virtual keyboard,touch keyboard,on screen keyboard,input methods,软件键盘,虚拟键盘,屏幕键盘,,屏上键盘,输入方式,输入法",
    "X-KDE-OnlyShowOnQtPlatforms": [
        "wayland"
    ],
    "X-KDE-ParentApp": "kcontrol",
    "X-KDE-System-Settings-Parent-Category": "input-devices"
}
