{
    "KPlugin": {
        "Category": "Accessibility",
        "Description": "A screen magnifier that looks like a fisheye lens",
        "Description[ar]": "مكبّرة شاشة تطالع كما عدسة عينا السمكة",
        "Description[az]": "Ekrandakı sahəni linza effekti ilə göstərir",
        "Description[ca@valencia]": "Una lupa de pantalla que sembla una lent amb ull de peix",
        "Description[ca]": "Una lupa de pantalla que sembla una lent amb ull de peix",
        "Description[cs]": "Lupa, která vypadá jako rybí oko",
        "Description[de]": "Eine Lupe, die wie eine Fischaugen-Linse funktioniert",
        "Description[en_GB]": "A screen magnifier that looks like a fisheye lens",
        "Description[es]": "Una lupa de pantalla que simula una lente de ojo de pez",
        "Description[fi]": "Kalansilmälinssiltä näyttävä suurennuslasi",
        "Description[fr]": "Une loupe d'écran ressemblant à une lentille grand angle",
        "Description[hu]": "Halszem-optikájú nagyító",
        "Description[ia]": "Un aggranditor de schermo semblante lentes fisheye",
        "Description[id]": "Sebuah kaca-pembesar layar yang terlihat seperti lensa mata ikan",
        "Description[it]": "Un ingranditore dello schermo che sembra una lente a occhio di pesce",
        "Description[ko]": "어안 렌즈를 통해서 화면을 확대합니다",
        "Description[nl]": "Een schermvergrootglas dat er uitziet als een visooglens",
        "Description[nn]": "Skjermforstørring forma som ei fiskeaugelinse",
        "Description[pl]": "Powiększa ekran przez \"rybie oko\"",
        "Description[pt]": "Uma lupa do ecrã que parece uma lente de olho-de-peixe",
        "Description[pt_BR]": "Uma lupa da área de trabalho que parece uma lente de olho-de-peixe",
        "Description[ro]": "Lupă pentru ecran ce arată ca o lentilă de ochi de pește",
        "Description[ru]": "Показ области экрана с эффектом линзы",
        "Description[sk]": "Lupa obrazovky s efektom rybieho oka",
        "Description[sl]": "Povečevalo zaslona, ki deluje kot objektiv ribjega očesa",
        "Description[sv]": "Ett skärmförstoringsglas som ser ut som en fiskögonlins",
        "Description[ta]": "பூதக்கண்ணாடியை போல திரையில் உள்ளவற்றை பெரிதாக்கும்",
        "Description[tr]": "Bir balık gözlü lense benzeyen bir ekran büyüteci",
        "Description[uk]": "Екранна лупа, яка робить вигляд стільниці схожим на зображення, отримане з ефектом «риб’ячого ока»",
        "Description[vi]": "Một trình phóng đại màn hình trông như một thấu kính mắt cá",
        "Description[x-test]": "xxA screen magnifier that looks like a fisheye lensxx",
        "Description[zh_CN]": "放大显示鼠标光标附近的一块圆形的屏幕内容，效果类似鱼眼镜头",
        "EnabledByDefault": false,
        "Id": "lookingglass",
        "License": "GPL",
        "Name": "Looking Glass",
        "Name[ar]": "عدسة عين السمكة",
        "Name[az]": "Linza",
        "Name[ca@valencia]": "Aspecte de vidre",
        "Name[ca]": "Aspecte de vidre",
        "Name[cs]": "Lupa",
        "Name[de]": "Bildschirmlupe",
        "Name[en_GB]": "Looking Glass",
        "Name[es]": "Espejo",
        "Name[fi]": "Suurennuslasi",
        "Name[fr]": "Mirroir",
        "Name[hu]": "Tükör",
        "Name[ia]": "Looking Glass",
        "Name[it]": "Specchio",
        "Name[ko]": "들여다보는 돋보기",
        "Name[nl]": "Vergrootglas",
        "Name[nn]": "Forstørringsglas",
        "Name[pl]": "Lupa",
        "Name[pt]": "Aparência de Vidro",
        "Name[pt_BR]": "Espelho",
        "Name[ro]": "Lentilă",
        "Name[ru]": "Линза",
        "Name[sk]": "Šošovka",
        "Name[sl]": "Izložba",
        "Name[sv]": "Förstoringsglas",
        "Name[ta]": "பூதக்கண்ணாடி",
        "Name[tr]": "Ayna",
        "Name[uk]": "Збільшувальне скло",
        "Name[vi]": "Kính lúp",
        "Name[x-test]": "xxLooking Glassxx",
        "Name[zh_CN]": "放大镜 (鱼眼)"
    },
    "X-KDE-ConfigModule": "kwin_lookingglass_config",
    "org.kde.kwin.effect": {
        "exclusiveGroup": "magnifiers",
        "video": "https://files.kde.org/plasma/kwin/effect-videos/looking_glass.ogv"
    }
}
