{
    "KPackageStructure": "KWin/Aurorae",
    "KPlugin": {
        "Authors": [
            {
                "Email": "demitriusbelai@gmail.com",
                "Name": "Demitrius Belai",
                "Name[ar]": "Demitrius Belai",
                "Name[az]": "Demitrius Belai",
                "Name[ca@valencia]": "Demitrius Belai",
                "Name[ca]": "Demitrius Belai",
                "Name[cs]": "Demitrius Belai",
                "Name[de]": "Demitrius Belai",
                "Name[en_GB]": "Demitrius Belai",
                "Name[es]": "Demitrius Belai",
                "Name[eu]": "Demitrius Belai",
                "Name[fi]": "Demitrius Belai",
                "Name[fr]": "Demitrius Belai",
                "Name[hu]": "Demitrius Belai",
                "Name[ia]": "Demitrius Belai",
                "Name[id]": "Demitrius Belai",
                "Name[it]": "Demitrius Belai",
                "Name[ko]": "Demitrius Belai",
                "Name[lt]": "Demitrius Belai",
                "Name[nl]": "Demitrius Belai",
                "Name[nn]": "Demitrius Belai",
                "Name[pl]": "Demitrius Belai",
                "Name[pt]": "Demitrius Belai",
                "Name[pt_BR]": "Demitrius Belai",
                "Name[ro]": "Demitrius Belai",
                "Name[ru]": "Demitrius Belai",
                "Name[sk]": "Demitrius Belai",
                "Name[sl]": "Demitrius Belai",
                "Name[sv]": "Demitrius Belai",
                "Name[ta]": "டெமெட்ரியஸ் பெலாய்",
                "Name[tr]": "Demitrius Belai",
                "Name[uk]": "Demitrius Belai",
                "Name[vi]": "Demitrius Belai",
                "Name[x-test]": "xxDemitrius Belaixx",
                "Name[zh_CN]": "Demitrius Belai"
            }
        ],
        "Name": "KWin Aurorae",
        "Name[ar]": "أورورا كوين",
        "Name[az]": "KWin Aurorae",
        "Name[ca@valencia]": "Aurorae de KWin",
        "Name[ca]": "Aurorae del KWin",
        "Name[cs]": "KWin Aurorae",
        "Name[de]": "KWin Aurorae",
        "Name[en_GB]": "KWin Aurorae",
        "Name[es]": "KWin Aurorae",
        "Name[eu]": "KWin Aurorae",
        "Name[fi]": "KWin Aurorae",
        "Name[fr]": "KWin Aurorae",
        "Name[hu]": "KWin Aurorae",
        "Name[ia]": "KWin Aurorae",
        "Name[it]": "KWin Aurorae",
        "Name[ko]": "KWin Aurorae",
        "Name[lt]": "KWin Aurorae",
        "Name[nl]": "KWin Aurorae",
        "Name[nn]": "KWin Aurorae",
        "Name[pl]": "KWin Aurorae",
        "Name[pt]": "KWin Aurora",
        "Name[pt_BR]": "KWin Auroarae",
        "Name[ro]": "KWin Aurorae",
        "Name[ru]": "Оформление окон Aurorae для KWin",
        "Name[sk]": "KWin Aurorae",
        "Name[sl]": "KWin Aurorae",
        "Name[sv]": "KWin Aurorae",
        "Name[tr]": "Kwin Aurorae",
        "Name[uk]": "KWin Aurorae",
        "Name[vi]": "Aurorae của KWin",
        "Name[x-test]": "xxKWin Auroraexx",
        "Name[zh_CN]": "KWin Aurorae 极光",
        "Version": "1"
    }
}
