{
    "KPlugin": {
        "Category": "Appearance",
        "Description": "Blurs the background behind semi-transparent windows",
        "Description[ar]": "تغشي الخلفية خلف النوافذ شبه الشفافة",
        "Description[az]": "Yarımşəffaf pəncərələrin altındakı fonu yayğınlaşdırmaq",
        "Description[ca@valencia]": "Difumina el fons de darrere de les finestres semitransparents",
        "Description[ca]": "Difumina el fons de darrere de les finestres semitransparents",
        "Description[cs]": "Rozostří pozadí poloprůhledných oken",
        "Description[de]": "Verwischt den Hintergrund halbtransparenter Fenster",
        "Description[en_GB]": "Blurs the background behind semi-transparent windows",
        "Description[es]": "Difumina el fondo detrás de las ventanas semitransparentes",
        "Description[fi]": "Sumentaa taustan puoliksi läpikuultavien ikkunoiden takana",
        "Description[fr]": "Rend flou l'arrière-plan sous les fenêtres semi-transparentes",
        "Description[hu]": "Elmosódottá teszi a félig áttetsző ablakok hátterét",
        "Description[ia]": "Obscura le fundo detra fenestras semi-transparente",
        "Description[id]": "Memburamkan belakang latar-belakang window semi transparan",
        "Description[it]": "Sfoca lo sfondo dietro a finestre semitrasparenti",
        "Description[ko]": "반투명 창의 뒷배경을 흐리게 합니다",
        "Description[nl]": "Vervaagt de achtergrond van halftransparante vensters",
        "Description[nn]": "Gjer bakgrunnen til halvgjennomsiktige vindauge uklar",
        "Description[pl]": "Rozmywa tło za półprzezroczystymi oknami",
        "Description[pt]": "Borra o fundo atrás das janelas semi-transparentes",
        "Description[pt_BR]": "Borra o plano de fundo por trás das janelas semitransparentes",
        "Description[ro]": "Estompează fundalul în spatele ferestrelor semi-transparente",
        "Description[ru]": "Размывание фона под полупрозрачными окнами",
        "Description[sk]": "Rozmaže pozadie za polopriehľadnými oknami",
        "Description[sl]": "Zamegli ozadje za polprosojnimi okni",
        "Description[sv]": "Gör bakgrunden bakom halvgenomskinliga fönster suddig",
        "Description[ta]": "ஒளிபுகும் சாளரங்களின் பின்புலத்தை மங்கலாக்கும்",
        "Description[tr]": "Yarısaydam pencerelerin ardını bulanıklaştır",
        "Description[uk]": "Розмивання тла напівпрозорих вікон",
        "Description[vi]": "Làm mờ phần nền phía sau các cửa sổ bán trong suốt",
        "Description[x-test]": "xxBlurs the background behind semi-transparent windowsxx",
        "Description[zh_CN]": "对半透明窗口的背景进行虚化处理",
        "EnabledByDefault": true,
        "Id": "blur",
        "License": "GPL",
        "Name": "Blur",
        "Name[ar]": "غشاوة",
        "Name[az]": "Bulanıq",
        "Name[ca@valencia]": "Difuminat",
        "Name[ca]": "Difuminat",
        "Name[cs]": "Rozostření",
        "Name[de]": "Verwischen",
        "Name[en_GB]": "Blur",
        "Name[es]": "Desenfocar",
        "Name[fi]": "Sumennus",
        "Name[fr]": "Flou",
        "Name[hu]": "Elmosás",
        "Name[ia]": "Obscura (Blur)",
        "Name[it]": "Sfocatura",
        "Name[ko]": "흐리게",
        "Name[nl]": "Vervagen",
        "Name[nn]": "Uklar",
        "Name[pl]": "Rozmycie",
        "Name[pt]": "BlueFish",
        "Name[pt_BR]": "Borrar",
        "Name[ro]": "Estompare",
        "Name[ru]": "Размытие",
        "Name[sk]": "Rozmazanie",
        "Name[sl]": "Zamegljeno",
        "Name[sv]": "Oskärpa",
        "Name[ta]": "மங்கலாக்கு",
        "Name[tr]": "Bulanıklaştır",
        "Name[uk]": "Розмиття",
        "Name[vi]": "Mờ",
        "Name[x-test]": "xxBlurxx",
        "Name[zh_CN]": "窗口背景虚化"
    },
    "X-KDE-ConfigModule": "kwin_blur_config",
    "org.kde.kwin.effect": {
        "enabledByDefaultMethod": true
    }
}
